<svg width="115" height="30" viewBox="0 0 115 30" fill="none" xmlns="http://www.w3.org/2000/svg">
<mask id="mask0" mask-type="alpha" maskUnits="userSpaceOnUse" x="0" y="22" width="14" height="8">
<path d="M13.1132 30C8.1836 25.1999 5.71875 22.7999 5.71864 22.8L0.897398 27.6C0.40144 28.2584 0.529589 29.1968 1.18363 29.6961C1.442 29.8933 1.75737 30 2.08164 30C2.08973 30 2.09782 30 2.10591 30C5.775 30 9.44409 30 13.1132 30Z" fill="white"/>
</mask>
<g mask="url(#mask0)">
<path d="M13.1132 30C8.1836 25.1999 5.71875 22.7999 5.71864 22.8L0.897398 27.6C0.40144 28.2584 0.529589 29.1968 1.18363 29.6961C1.442 29.8933 1.75737 30 2.08164 30C2.08973 30 2.09782 30 2.10591 30C5.775 30 9.44409 30 13.1132 30Z" fill="#FF4F12"/>
</g>
<path fill-rule="evenodd" clip-rule="evenodd" d="M17.8817 10.8L7.15269 0L1.16248 6.28107C0.416546 7.06323 0 8.10546 0 9.1897L0 27.6C0 28.9255 1.06746 30 2.38423 30C1.56845 30 0.907123 29.3343 0.907123 28.5131C0.907123 28.1178 1.06352 27.7388 1.34174 27.4597" fill="#7800FF"/>
<path fill-rule="evenodd" clip-rule="evenodd" d="M94.3396 18.7046H91.7596L88.6777 21.8419V18.7046H86.4958V27.3497H88.6777V23.7767L91.8117 27.3497H94.4436L90.3918 22.7134L94.3396 18.7046Z" fill="#101828"/>
<mask id="mask1" mask-type="alpha" maskUnits="userSpaceOnUse" x="19" y="15" width="11" height="13">
<path d="M19.6698 15.1487H29.7125V27.3494H19.6698V15.1487Z" fill="white"/>
</mask>
<g mask="url(#mask1)">
<path fill-rule="evenodd" clip-rule="evenodd" d="M25.1067 21.0397H21.9553V17.2052H25.1067C26.6996 17.2052 27.4269 17.972 27.4269 19.1224C27.4269 20.2728 26.6996 21.0397 25.1067 21.0397ZM25.1759 15.1484H19.6698V27.3492H21.9553V23.0963H25.1759C27.9118 23.0963 29.7125 21.6846 29.7125 19.1224C29.7125 16.5602 27.9118 15.1484 25.1759 15.1484Z" fill="#101828"/>
</g>
<path fill-rule="evenodd" clip-rule="evenodd" d="M34.8717 25.5364C33.5905 25.5364 32.3956 24.6126 32.3956 23.0264C32.3956 21.4404 33.5905 20.5167 34.8717 20.5167C36.153 20.5167 37.3477 21.4404 37.3477 23.0264C37.3477 24.6126 36.153 25.5364 34.8717 25.5364ZM34.8717 18.46C32.5169 18.46 30.1792 19.9939 30.1792 23.0264C30.1792 26.0594 32.5169 27.5931 34.8717 27.5931C37.2266 27.5931 39.5641 26.0594 39.5641 23.0264C39.5641 19.9939 37.2266 18.46 34.8717 18.46Z" fill="#101828"/>
<path fill-rule="evenodd" clip-rule="evenodd" d="M45.1341 25.5364C43.8182 25.5364 42.8485 24.5778 42.8485 23.0264C42.8485 21.4927 43.8527 20.5167 45.1341 20.5167C45.9133 20.5167 46.5886 20.8827 47.1253 21.7019L48.9953 20.6212C48.3721 19.279 47.0214 18.46 45.1514 18.46C42.7099 18.46 40.6321 20.2726 40.6321 23.0264C40.6321 25.7804 42.6061 27.5931 45.1514 27.5931C46.9868 27.5931 48.2161 26.7566 49.0819 25.2751L47.2812 24.2816C46.7617 25.0136 46.2076 25.5364 45.1341 25.5364Z" fill="#101828"/>
<path fill-rule="evenodd" clip-rule="evenodd" d="M68.3638 23.6024C68.26 24.9269 67.9999 25.2234 67.5497 25.2234C67.2421 25.2234 67.0975 25.189 66.887 25.1335L66.8979 27.3708C66.8979 27.3708 67.1691 27.4541 67.6712 27.4541C69.5239 27.4541 70.2165 26.2515 70.3897 23.6894L70.5975 20.6742H73.0561V27.3322H75.2379V18.7046H68.7274L68.3638 23.6024Z" fill="#101828"/>
<path fill-rule="evenodd" clip-rule="evenodd" d="M59.786 21.8762C60.0977 20.9001 60.9634 20.1332 62.1062 20.1332C63.3184 20.1332 64.1322 20.7955 64.3399 21.8762H59.786ZM62.1756 18.46C59.6822 18.46 57.6562 20.2901 57.6562 23.0264C57.6562 25.763 59.6822 27.5931 62.0716 27.5931C63.959 27.5931 65.1537 26.8785 66.0195 25.397L64.2879 24.5255C63.7512 25.2053 63.2663 25.7106 62.1062 25.7106C60.825 25.7106 59.89 24.8741 59.7514 23.5494H66.3657V22.7825C66.3657 20.2552 64.6343 18.46 62.1756 18.46Z" fill="#101828"/>
<path fill-rule="evenodd" clip-rule="evenodd" d="M78.589 21.8762C78.9007 20.9001 79.7664 20.1332 80.9092 20.1332C82.1212 20.1332 82.935 20.7955 83.1429 21.8762H78.589ZM80.9785 18.46C78.485 18.46 76.4592 20.2901 76.4592 23.0264C76.4592 25.763 78.485 27.5931 80.8746 27.5931C82.7619 27.5931 83.9566 26.8785 84.8224 25.397L83.091 24.5255C82.5541 25.2053 82.0693 25.7106 80.9092 25.7106C79.6279 25.7106 78.6928 24.8741 78.5544 23.5494H85.1687V22.7825C85.1687 20.2552 83.4371 18.46 80.9785 18.46Z" fill="#101828"/>
<path fill-rule="evenodd" clip-rule="evenodd" d="M49.7609 20.6218H52.3236V27.3497H54.5051V20.6218H57.0679V18.7046H49.7609V20.6218Z" fill="#101828"/>
<path fill-rule="evenodd" clip-rule="evenodd" d="M98.7749 25.5364C97.4935 25.5364 96.2988 24.6126 96.2988 23.0264C96.2988 21.4404 97.4935 20.5167 98.7749 20.5167C100.056 20.5167 101.251 21.4404 101.251 23.0264C101.251 24.6126 100.056 25.5364 98.7749 25.5364ZM98.7749 18.46C96.4201 18.46 94.0824 19.9937 94.0824 23.0264C94.0824 26.0593 96.4201 27.5931 98.7749 27.5931C101.13 27.5931 103.467 26.0593 103.467 23.0264C103.467 19.9937 101.13 18.46 98.7749 18.46Z" fill="#101828"/>
<path fill-rule="evenodd" clip-rule="evenodd" d="M112.148 18.7034L109.78 24.7579L107.413 18.7034H104.561V27.3328H106.635V21.8697L108.934 27.3328H110.627L112.926 21.8697V27.3328H115V18.7034H112.148Z" fill="#101828"/>
</svg>
